<svg xmlns="http://www.w3.org/2000/svg" width="23" height="15.566" viewBox="0 0 23 15.566">
  <g id="Group_9187" data-name="Group 9187" transform="translate(-287.5 -37.5)">
    <line id="Line_6" data-name="Line 6" x2="21" transform="translate(288.5 45.283)" fill="none" stroke="#13519f" stroke-linecap="round" stroke-width="2"/>
    <line id="Line_7" data-name="Line 7" x2="10.853" transform="translate(298.647 38.5)" fill="none" stroke="#13519f" stroke-linecap="round" stroke-width="2"/>
    <line id="Line_8" data-name="Line 8" x2="10.853" transform="translate(288.5 52.066)" fill="none" stroke="#13519f" stroke-linecap="round" stroke-width="2"/>
  </g>
</svg>
